INDEX VERSION 1.131+F:\TFS_Project\TFS_Neemacademy\Neemacademy\Automation\.metadata\.plugins\org.eclipse.jdt.core
3483006263.index
3982347833.index
2272273464.index
3413573940.index
3718929376.index
848469205.index
3112127605.index
3411058098.index
688180262.index
795575307.index
194259052.index
3535055239.index
1059642577.index
2470519452.index
628019425.index
2709225165.index
1131788863.index
1744561179.index
3750733425.index
2264705012.index
3938003216.index
2249249261.index
4153669431.index
272809395.index
148409970.index
3666609613.index
1790733215.index
1261896950.index
475017838.index
367330117.index
1698861753.index
2082814635.index
1580259952.index
2008352116.index
3141958188.index
2095818886.index
2796373164.index
922380862.index
3698447926.index
2813334481.index
836550409.index
4159407504.index
3969320497.index
4198001058.index
1494055928.index
1307694652.index
2749997885.index
2000008478.index
675189876.index
1689259093.index
1263885667.index
3380117127.index
3620471903.index
1201667172.index
3532608927.index
1484906476.index
4069650667.index
1477788888.index
559129880.index
648612256.index
2387717604.index
4265864773.index
