{
  "configuration": {
    "$mid": 1,
    "fsPath": "f:\\TFS_Project\\New_TFS_Neema\\Neemacademy\\Automation\\.metadata\\codemix.code-workspace",
    "external": "file:///f%3A/TFS_Project/New_TFS_Neema/Neemacademy/Automation/.metadata/codemix.code-workspace",
    "path": "/F:/TFS_Project/New_TFS_Neema/Neemacademy/Automation/.metadata/codemix.code-workspace",
    "scheme": "file"
  }
}